Analysis of movies- IMDB dataset · Pingchuan Tian
…
movies_3<-mutate(movies,return_on_budget=gross/budget)
movies_3

## # A tibble: 2,961 x 12
##    title genre director  year duration  gross budget cast_facebook_l~  votes
##    <chr> <chr> <chr>    <dbl>    <dbl>  <dbl>  <dbl>            <dbl>  <dbl>
##  1 Avat~ Acti~ James C~  2009      178 7.61e8 2.37e8             4834 8.86e5
##  2 Tita~ Drama James C~  1997      194 6.59e8 2.00e8            45223 7.93e5
##  3 Jura~ Acti~ Colin T~  2015      124 6.52e8 1.50e8             8458 4.18e5
##  4 The ~ Acti~ Joss Wh~  2012      173 6.23e8 2.20e8            87697 9.95e5
##  5 The ~ Acti~ Christo~  2008      152 5.33e8 1.85e8            57802 1.68e6
##  6 Star~ Acti~ George ~  1999      136 4.75e8 1.15e8            37723 5.35e5
##  7 Star~ Acti~ George ~  1977      125 4.61e8 1.10e7            13485 9.11e5
##  8 Aven~ Acti~ Joss Wh~  2015      141 4.59e8 2.50e8            92000 4.63e5
##  9 The ~ Acti~ Christo~  2012      164 4.48e8 2.50e8           106759 1.14e6
## 10 Shre~ Adve~ Andrew ~  2004       93 4.36e8 1.50e8             1148 3.15e5
## # ... with 2,951 more rows, and 3 more variables: reviews <dbl>, rating <dbl>,
## #   return_on_budget <dbl>
…
